<?xml version="1.0" encoding="UTF-8" standalone="no"?>
<!DOCTYPE svg PUBLIC "-//W3C//DTD SVG 1.1//EN" "http://www.w3.org/Graphics/SVG/1.1/DTD/svg11.dtd">
<svg width="100%" height="100%" viewBox="0 0 920 1080" version="1.1" xmlns="http://www.w3.org/2000/svg" xmlns:xlink="http://www.w3.org/1999/xlink" xml:space="preserve" xmlns:serif="http://www.serif.com/" style="fill-rule:evenodd;clip-rule:evenodd;stroke-linejoin:round;stroke-miterlimit:2;">
    <path d="M0,1080L0,0C306.75,-2.366 613.352,-0.52 920,0C920,-0.1 508.4,207.6 0,1080Z" style="fill:rgb(242,243,244);fill-rule:nonzero;"/>
    <path d="M153.2,1080C153.2,1080 421.3,350.9 919.1,1.5C920,1 920,0 920,0C920,0 918.2,0.7 917.3,1.1C809.477,39.785 332.363,462.783 0,1079.9L153.2,1080Z" style="fill:rgb(54,144,192);fill-rule:nonzero;"/>
</svg>
